{
  "iisSettings": {
    "windowsAuthentication": false,
    "anonymousAuthentication": true,
    "iisExpress": {
      "applicationUrl": "http://localhost:52006",
      "sslPort": 44324
    }
  },
  "$schema": "http://json.schemastore.org/launchsettings.json",
    "profiles": {
        "IIS Express": {
            "commandName": "IISExpress",
            "launchBrowser": true,
            "launchUrl": "",
            "environmentVariables": {
                "ASPNETCORE_ENVIRONMENT": "Development"
            }
        },
        "CatalystAnalyticalRequestPool.API": {
            "commandName": "Project",
            "launchBrowser": true,
            "launchUrl": "",
            "environmentVariables": {
                "ASPNETCORE_ENVIRONMENT": "Development"
            },
            "applicationUrl": "https://localhost:5001;http://localhost:5000"
        },
        "Docker": {
            "commandName": "Docker",
            "launchBrowser": true,
            "launchUrl": "{Scheme}://{ServiceHost}:{ServicePort}/",
            "publishAllPorts": true,
            "useSSL": true
        }
    }
}